{   
    "album": 
    {
      "album_type" : "album",
      "artists" : [ {
        "external_urls" : {
          "spotify" : "https://open.spotify.com/artist/2BTZIqw0ntH9MvilQ3ewNY"
        },
        "href" : "https://api.spotify.com/v1/artists/2BTZIqw0ntH9MvilQ3ewNY",
        "id" : "2BTZIqw0ntH9MvilQ3ewNY",
        "name" : "Cyndi Lauper",
        "type" : "artist",
        "uri" : "spotify:artist:2BTZIqw0ntH9MvilQ3ewNY"
      } ],
      "available_markets" : [ "AD", "AR", "AT", "AU", "BE", "BG", "BO", "BR", "CA", "CH", "CL", "CO", "CR", "CY", "CZ", "DE", "DK", "DO", "EC", "EE", "ES", "FI", "FR", "GB", "GR", "GT", "HK", "HN", "HU", "IE", "IS", "IT", "LI", "LT", "LU", "LV", "MC", "MT", "MX", "MY", "NI", "NL", "NO", "NZ", "PA", "PE", "PH", "PT", "PY", "RO", "SE", "SG", "SI", "SK", "SV", "TW", "UY" ],
      "copyrights" : [ {
        "text" : "(P) 2000 Sony Music Entertainment Inc.",
        "type" : "P"
      } ],
      "external_ids" : {
        "upc" : "5099749994324"
      },
      "external_urls" : {
        "spotify" : "https://open.spotify.com/album/0sNOF9WDwhWunNAHPD3Baj"
      },
      "genres" : [ ],
      "href" : "https://api.spotify.com/v1/albums/0sNOF9WDwhWunNAHPD3Baj",
      "id" : "0sNOF9WDwhWunNAHPD3Baj",
      "images" : [ {
        "height" : 640,
        "url" : "https://i.scdn.co/image/07c323340e03e25a8e5dd5b9a8ec72b69c50089d",
        "width" : 640
      }, {
        "height" : 300,
        "url" : "https://i.scdn.co/image/8b662d81966a0ec40dc10563807696a8479cd48b",
        "width" : 300
      }, {
        "height" : 64,
        "url" : "https://i.scdn.co/image/54b3222c8aaa77890d1ac37b3aaaa1fc9ba630ae",
        "width" : 64
      } ],
      "name" : "She's So Unusual",
      "popularity" : 39,
      "release_date" : "1983",
      "release_date_precision" : "year",
      "tracks" : {
        "href" : "https://api.spotify.com/v1/albums/0sNOF9WDwhWunNAHPD3Baj/tracks?offset=0&limit=50",
        "items" : [ {
          "artists" : [ {
            "external_urls" : {
              "spotify" : "https://open.spotify.com/artist/2BTZIqw0ntH9MvilQ3ewNY"
            },
            "href" : "https://api.spotify.com/v1/artists/2BTZIqw0ntH9MvilQ3ewNY",
            "id" : "2BTZIqw0ntH9MvilQ3ewNY",
            "name" : "Cyndi Lauper",
            "type" : "artist",
            "uri" : "spotify:artist:2BTZIqw0ntH9MvilQ3ewNY"
          } ],
          "available_markets" : [ "AD", "AR", "AT", "AU", "BE", "BG", "BO", "BR", "CA", "CH", "CL", "CO", "CR", "CY", "CZ", "DE", "DK", "DO", "EC", "EE", "ES", "FI", "FR", "GB", "GR", "GT", "HK", "HN", "HU", "IE", "IS", "IT", "LI", "LT", "LU", "LV", "MC", "MT", "MX", "MY", "NI", "NL", "NO", "NZ", "PA", "PE", "PH", "PT", "PY", "RO", "SE", "SG", "SI", "SK", "SV", "TW", "UY" ],
          "disc_number" : 1,
          "duration_ms" : 305560,
          "explicit" : false,
          "external_urls" : {
            "spotify" : "https://open.spotify.com/track/3f9zqUnrnIq0LANhmnaF0V"
          },
          "href" : "https://api.spotify.com/v1/tracks/3f9zqUnrnIq0LANhmnaF0V",
          "id" : "3f9zqUnrnIq0LANhmnaF0V",
          "name" : "Money Changes Everything",
          "preview_url" : "https://p.scdn.co/mp3-preview/01bb2a6c9a89c05a4300aea427241b1719a26b06",
          "track_number" : 1,
          "type" : "track",
          "uri" : "spotify:track:3f9zqUnrnIq0LANhmnaF0V"
        }],
        "limit" : 50,
        "next" : null,
        "offset" : 0,
        "previous" : null,
        "total" : 13
      },
      "type" : "album",
      "uri" : "spotify:album:0sNOF9WDwhWunNAHPD3Baj"
    },
    "artist": 
    {
        "external_urls" : {
        "spotify" : "https://open.spotify.com/artist/0OdUWJ0sBjDrqHygGUXeCF"
        },
        "followers" : {
        "href" : null,
        "total" : 306565
        },
        "genres" : [ "indie folk", "indie pop" ],
        "href" : "https://api.spotify.com/v1/artists/0OdUWJ0sBjDrqHygGUXeCF",
        "id" : "0OdUWJ0sBjDrqHygGUXeCF",
        "images" : [ {
        "height" : 816,
        "url" : "https://i.scdn.co/image/eb266625dab075341e8c4378a177a27370f91903",
        "width" : 1000
        }, {
        "height" : 522,
        "url" : "https://i.scdn.co/image/2f91c3cace3c5a6a48f3d0e2fd21364d4911b332",
        "width" : 640
        }, {
        "height" : 163,
        "url" : "https://i.scdn.co/image/2efc93d7ee88435116093274980f04ebceb7b527",
        "width" : 200
        }, {
        "height" : 52,
        "url" : "https://i.scdn.co/image/4f25297750dfa4051195c36809a9049f6b841a23",
        "width" : 64
        } ],
        "name" : "Band of Horses",
        "popularity" : 59,
        "type" : "artist",
        "uri" : "spotify:artist:0OdUWJ0sBjDrqHygGUXeCF"
    },
    "album_paging":
    {
        "href": "https://api.spotify.com/v1/artists/1vCWHaC5f2uS3yhpwWbIA6/albums?offset=0&limit=2&include_groups=appears_on&market=ES",
        "items": [
          {
            "album_group": "appears_on",
            "album_type": "album",
            "artists": [
              {
                "external_urls": {
                  "spotify": "https://open.spotify.com/artist/0LyfQWJT6nXafLPZqxe9Of"
                },
                "href": "https://api.spotify.com/v1/artists/0LyfQWJT6nXafLPZqxe9Of",
                "id": "0LyfQWJT6nXafLPZqxe9Of",
                "name": "Various Artists",
                "type": "artist",
                "uri": "spotify:artist:0LyfQWJT6nXafLPZqxe9Of"
              }
            ],
            "available_markets": ["AD", "AR", "AT", "AU", "BE", "BG", "BO", "BR", "CH", "CL", "CO", "CR", "CY", "CZ", "DE", "DK", "DO", "EC", "EE", "ES", "FI", "FR", "GB", "GR", "GT", "HK", "HN", "HU", "ID", "IE", "IL", "IS", "IT", "JP", "LI", "LT", "LU", "LV", "MC", "MT", "MY", "NI", "NL", "NO", "NZ", "PA", "PE", "PH", "PL", "PT", "PY", "RO", "SE", "SG", "SK", "SV", "TH", "TR", "TW", "UY", "VN", "ZA"],
            "external_urls": {
              "spotify": "https://open.spotify.com/album/43977e0YlJeMXG77uCCSMX"
            },
            "href": "https://api.spotify.com/v1/albums/43977e0YlJeMXG77uCCSMX",
            "id": "43977e0YlJeMXG77uCCSMX",
            "images": [
              {
                "height": 640,
                "url": "https://i.scdn.co/image/0da79956d0440a55b20ea4e8e38877bce43275cd",
                "width": 640
              },
              {
                "height": 300,
                "url": "https://i.scdn.co/image/29368267cc6b1eab2600e6e42485d3774621e7d4",
                "width": 300
              },
              {
                "height": 64,
                "url": "https://i.scdn.co/image/779dd6d6a0e124e03a5143d2be729ee4bab3f15f",
                "width": 64
              }
            ],
            "name": "Shut Up Lets Dance (Vol. II)",
            "release_date": "2018-02-09",
            "release_date_precision": "day",
            "type": "album",
            "uri": "spotify:album:43977e0YlJeMXG77uCCSMX"
          },
          {
            "album_group": "appears_on",
            "album_type": "compilation",
            "artists": [
              {
                "external_urls": {
                  "spotify": "https://open.spotify.com/artist/0LyfQWJT6nXafLPZqxe9Of"
                },
                "href": "https://api.spotify.com/v1/artists/0LyfQWJT6nXafLPZqxe9Of",
                "id": "0LyfQWJT6nXafLPZqxe9Of",
                "name": "Various Artists",
                "type": "artist",
                "uri": "spotify:artist:0LyfQWJT6nXafLPZqxe9Of"
              }
            ],
            "available_markets": ["AD", "AR", "AT", "AU", "BE", "BG", "BO", "BR", "CA", "CH", "CL", "CO", "CR", "CY", "CZ", "DE", "DK", "DO", "EC", "EE", "ES", "FI", "FR", "GB", "GR", "GT", "HK", "HN", "HU", "ID", "IE", "IL", "IS", "IT", "JP", "LI", "LT", "LU", "LV", "MC", "MT", "MX", "MY", "NI", "NL", "NO", "NZ", "PA", "PE", "PH", "PL", "PT", "PY", "RO", "SE", "SG", "SK", "SV", "TH", "TR", "TW", "US", "UY", "VN", "ZA"],
            "external_urls": {
              "spotify": "https://open.spotify.com/album/189ngoT3WxR5mZSYkAGOLF"
            },
            "href": "https://api.spotify.com/v1/albums/189ngoT3WxR5mZSYkAGOLF",
            "id": "189ngoT3WxR5mZSYkAGOLF",
            "images": [
              {
                "height": 600,
                "url": "https://i.scdn.co/image/42f4dbe7e54d52efa14f058fab74d8a0505ef26d",
                "width": 600
              },
              {
                "height": 300,
                "url": "https://i.scdn.co/image/b221fb6d689f84f8e09b493776520194a6f4ef88",
                "width": 300
              },
              {
                "height": 64,
                "url": "https://i.scdn.co/image/0fc4a3cb2ee5b14fdefeb8f20afd84b7fbae7707",
                "width": 64
              }
            ],
            "name": "Classic Club Monsters (25 Floor Killers)",
            "release_date": "2018-02-02",
            "release_date_precision": "day",
            "type": "album",
            "uri": "spotify:album:189ngoT3WxR5mZSYkAGOLF"
          }
        ],
        "limit": 2,
        "next": "https://api.spotify.com/v1/artists/1vCWHaC5f2uS3yhpwWbIA6/albums?offset=2&limit=2&include_groups=appears_on&market=ES",
        "offset": 0,
        "previous": null,
        "total": 308
    },
    "track":
    {
      "album": {
        "album_type": "single",
        "artists": [
          {
            "external_urls": {
              "spotify": "https://open.spotify.com/artist/6sFIWsNpZYqfjUpaCgueju"
            },
            "href": "https://api.spotify.com/v1/artists/6sFIWsNpZYqfjUpaCgueju",
            "id": "6sFIWsNpZYqfjUpaCgueju",
            "name": "Carly Rae Jepsen",
            "type": "artist",
            "uri": "spotify:artist:6sFIWsNpZYqfjUpaCgueju"
          }
        ],
        "available_markets": [
          "AD",
          "AR",
          "AT",
          "AU",
          "BE",
          "BG",
          "BO",
          "BR",
          "CA",
          "CH",
          "CL",
          "CO",
          "CR",
          "CY",
          "CZ",
          "DE",
          "DK",
          "DO",
          "EC",
          "EE",
          "ES",
          "FI",
          "FR",
          "GB",
          "GR",
          "GT",
          "HK",
          "HN",
          "HU",
          "ID",
          "IE",
          "IL",
          "IS",
          "IT",
          "JP",
          "LI",
          "LT",
          "LU",
          "LV",
          "MC",
          "MT",
          "MX",
          "MY",
          "NI",
          "NL",
          "NO",
          "NZ",
          "PA",
          "PE",
          "PH",
          "PL",
          "PT",
          "PY",
          "RO",
          "SE",
          "SG",
          "SK",
          "SV",
          "TH",
          "TR",
          "TW",
          "US",
          "UY",
          "VN",
          "ZA"
        ],
        "external_urls": {
          "spotify": "https://open.spotify.com/album/0tGPJ0bkWOUmH7MEOR77qc"
        },
        "href": "https://api.spotify.com/v1/albums/0tGPJ0bkWOUmH7MEOR77qc",
        "id": "0tGPJ0bkWOUmH7MEOR77qc",
        "images": [
          {
            "height": 640,
            "url": "https://i.scdn.co/image/966ade7a8c43b72faa53822b74a899c675aaafee",
            "width": 640
          },
          {
            "height": 300,
            "url": "https://i.scdn.co/image/107819f5dc557d5d0a4b216781c6ec1b2f3c5ab2",
            "width": 300
          },
          {
            "height": 64,
            "url": "https://i.scdn.co/image/5a73a056d0af707b4119a883d87285feda543fbb",
            "width": 64
          }
        ],
        "name": "Cut To The Feeling",
        "release_date": "2017-05-26",
        "release_date_precision": "day",
        "type": "album",
        "uri": "spotify:album:0tGPJ0bkWOUmH7MEOR77qc"
      },
      "artists": [
        {
          "external_urls": {
            "spotify": "https://open.spotify.com/artist/6sFIWsNpZYqfjUpaCgueju"
          },
          "href": "https://api.spotify.com/v1/artists/6sFIWsNpZYqfjUpaCgueju",
          "id": "6sFIWsNpZYqfjUpaCgueju",
          "name": "Carly Rae Jepsen",
          "type": "artist",
          "uri": "spotify:artist:6sFIWsNpZYqfjUpaCgueju"
        }
      ],
      "available_markets": [
        "AD",
        "AR",
        "AT",
        "AU",
        "BE",
        "BG",
        "BO",
        "BR",
        "CA",
        "CH",
        "CL",
        "CO",
        "CR",
        "CY",
        "CZ",
        "DE",
        "DK",
        "DO",
        "EC",
        "EE",
        "ES",
        "FI",
        "FR",
        "GB",
        "GR",
        "GT",
        "HK",
        "HN",
        "HU",
        "ID",
        "IE",
        "IL",
        "IS",
        "IT",
        "JP",
        "LI",
        "LT",
        "LU",
        "LV",
        "MC",
        "MT",
        "MX",
        "MY",
        "NI",
        "NL",
        "NO",
        "NZ",
        "PA",
        "PE",
        "PH",
        "PL",
        "PT",
        "PY",
        "RO",
        "SE",
        "SG",
        "SK",
        "SV",
        "TH",
        "TR",
        "TW",
        "US",
        "UY",
        "VN",
        "ZA"
      ],
      "disc_number": 1,
      "duration_ms": 207959,
      "explicit": false,
      "external_ids": {
        "isrc": "USUM71703861"
      },
      "external_urls": {
        "spotify": "https://open.spotify.com/track/11dFghVXANMlKmJXsNCbNl"
      },
      "href": "https://api.spotify.com/v1/tracks/11dFghVXANMlKmJXsNCbNl",
      "id": "11dFghVXANMlKmJXsNCbNl",
      "is_local": false,
      "name": "Cut To The Feeling",
      "popularity": 63,
      "preview_url": "https://p.scdn.co/mp3-preview/3eb16018c2a700240e9dfb8817b6f2d041f15eb1?cid=774b29d4f13844c495f206cafdad9c86",
      "track_number": 1,
      "type": "track",
      "uri": "spotify:track:11dFghVXANMlKmJXsNCbNl"
    }
}